[
  {
    "objectCode":"CUT_ROPE",
    "title":"Attempt to cut the rope",
    "npCharacterRequestCodes":["ER1_PROMPT_CHOICE"]
  },
  {
    "objectCode":"BREAK_FINGERS",
    "title":"Painfully dislocate your fingers",
    "npCharacterRequestCodes":["ER1_PROMPT_CHOICE"]
  },
  {
    "objectCode":"KEEP_CUTTING",
    "title":"Keep cutting.",
    "npCharacterRequestCodes":["ER2A_PROMPT_CHOICE"]
  },
  {
    "objectCode":"STAY_STILL",
    "title":"Stay still...",
    "npCharacterRequestCodes":["ER2A_PROMPT_CHOICE"]
  },
  {
    "objectCode":"SPEAK_UP",
    "title":"Speak up!",
    "npCharacterRequestCodes":["ER2A_PROMPT_CHOICE"]
  },
  {
    "objectCode":"HIDE_AND_WAIT",
    "title":"Hide and wait...",
    "npCharacterRequestCodes":["ER2B_PROMPT_CHOICE"]
  },
  {
    "objectCode":"ATTACK",
    "title":"ATTACK!",
    "npCharacterRequestCodes":["ER2B_PROMPT_CHOICE"]
  },
  {
    "objectCode":"LOSE_CONSCIOUSNESS",
    "title":"Lose consciousness",
    "npCharacterRequestCodes":["ER3A_PROMPT_CHOICE"]
  },
  {
    "objectCode":"WALK_OUT",
    "title":"Exit the room",
    "npCharacterRequestCodes":["ER3B_PROMPT_CHOICE"]
  }
]